%YAML 1.1
%TAG !u! tag:unity3d.com,2011:
--- !u!21 &2100000
Material:
  serializedVersion: 8
  m_ObjectHideFlags: 0
  m_CorrespondingSourceObject: {fileID: 0}
  m_PrefabInstance: {fileID: 0}
  m_PrefabAsset: {fileID: 0}
  m_Name: HextTileMaterial
  m_Shader: {fileID: -6465566751694194690, guid: 5e6ae84c6be5edf4f8444033f4b3f887, type: 3}
  m_Parent: {fileID: 0}
  m_ModifiedSerializedProperties: 0
  m_ValidKeywords: []
  m_InvalidKeywords: []
  m_LightmapFlags: 4
  m_EnableInstancingVariants: 0
  m_DoubleSidedGI: 0
  m_CustomRenderQueue: -1
  stringTagMap: {}
  disabledShaderPasses: []
  m_LockedProperties: 
  m_SavedProperties:
    serializedVersion: 3
    m_TexEnvs:
    - _BumpMap:
        m_Texture: {fileID: 0}
        m_Scale: {x: 1, y: 1}
        m_Offset: {x: 0, y: 0}
    - _DetailAlbedoMap:
        m_Texture: {fileID: 0}
        m_Scale: {x: 1, y: 1}
        m_Offset: {x: 0, y: 0}
    - _DetailMask:
        m_Texture: {fileID: 0}
        m_Scale: {x: 1, y: 1}
        m_Offset: {x: 0, y: 0}
    - _DetailNormalMap:
        m_Texture: {fileID: 0}
        m_Scale: {x: 1, y: 1}
        m_Offset: {x: 0, y: 0}
    - _EmissionMap:
        m_Texture: {fileID: 0}
        m_Scale: {x: 1, y: 1}
        m_Offset: {x: 0, y: 0}
    - _MainTex:
        m_Texture: {fileID: 0}
        m_Scale: {x: 1, y: 1}
        m_Offset: {x: 0, y: 0}
    - _MetallicGlossMap:
        m_Texture: {fileID: 0}
        m_Scale: {x: 1, y: 1}
        m_Offset: {x: 0, y: 0}
    - _OcclusionMap:
        m_Texture: {fileID: 0}
        m_Scale: {x: 1, y: 1}
        m_Offset: {x: 0, y: 0}
    - _ParallaxMap:
        m_Texture: {fileID: 0}
        m_Scale: {x: 1, y: 1}
        m_Offset: {x: 0, y: 0}
    - _SampleTexture2D_2546b9e73d4846c89296ec36516907b3_Texture_1_Texture2D:
        m_Texture: {fileID: 2800000, guid: 8f76167458280b04f9b87fd618d45ce4, type: 3}
        m_Scale: {x: 1, y: 1}
        m_Offset: {x: 0, y: 0}
    - _SampleTexture2D_2eaf5b230e224e3a94fded7a76a4eb76_Texture_1_Texture2D:
        m_Texture: {fileID: 2800000, guid: e0737ac6285c7b745909f664085b4082, type: 3}
        m_Scale: {x: 1, y: 1}
        m_Offset: {x: 0, y: 0}
    - _SampleTexture2D_47f30d46986a410380ab3dfffa09975a_Texture_1_Texture2D:
        m_Texture: {fileID: 2800000, guid: e0737ac6285c7b745909f664085b4082, type: 3}
        m_Scale: {x: 1, y: 1}
        m_Offset: {x: 0, y: 0}
    - _SampleTexture2D_877cd1f8765f4a1c8bd66c1a0f9519e3_Texture_1_Texture2D:
        m_Texture: {fileID: 2800000, guid: 410a4746b3f983f40890f76b3c8ebca7, type: 3}
        m_Scale: {x: 1, y: 1}
        m_Offset: {x: 0, y: 0}
    - _SampleTexture2D_bdd06ab322c340879b14443e6480f1ab_Texture_1_Texture2D:
        m_Texture: {fileID: 2800000, guid: 410a4746b3f983f40890f76b3c8ebca7, type: 3}
        m_Scale: {x: 1, y: 1}
        m_Offset: {x: 0, y: 0}
    - _SampleTexture2D_d2386bd26f8548bfb427402002a1c62f_Texture_1_Texture2D:
        m_Texture: {fileID: 2800000, guid: 563ade665dc79cb47b8fc8b6f08962fc, type: 3}
        m_Scale: {x: 1, y: 1}
        m_Offset: {x: 0, y: 0}
    m_Ints: []
    m_Floats:
    - _BUILTIN_QueueControl: 0
    - _BUILTIN_QueueOffset: 0
    - _BumpScale: 1
    - _Cutoff: 0.5
    - _DetailNormalMapScale: 1
    - _DstBlend: 0
    - _GlossMapScale: 1
    - _Glossiness: 0.5
    - _GlossyReflections: 1
    - _HoverColorIntensity: 1
    - _IsHovered: 1
    - _Metallic: 0
    - _Metalness: 0
    - _Mode: 0
    - _ObstacleColorIntensity: 1
    - _OcclusionStrength: 1
    - _Parallax: 0.02
    - _PathColorIntensity: 1
    - _Smoothness: 0
    - _SmoothnessTextureChannel: 0
    - _SpecularHighlights: 1
    - _SrcBlend: 1
    - _UVSec: 0
    - _ZWrite: 1
    m_Colors:
    - _Color: {r: 1, g: 1, b: 1, a: 1}
    - _EmissionColor: {r: 0, g: 0, b: 0, a: 1}
    - _HoverColor: {r: 0, g: 0.70440245, b: 0.48427668, a: 1}
    - _NormalEmissive: {r: 0, g: 0, b: 0, a: 1}
    - _ObstacleColor: {r: 0, g: 0, b: 0, a: 1}
    - _PathColor: {r: 0.18903513, g: 0.4753423, b: 0.74213827, a: 1}
    - _SecondarySideColor: {r: 0.66666657, g: 0.32051277, b: 0, a: 1}
    - _SecondaryTopColor: {r: 0.37106913, g: 0.3397787, b: 0.08051495, a: 1}
    - _SideColor: {r: 0.23270428, g: 0.12399298, b: 0.028539175, a: 1}
    - _TopColor: {r: 0.61635214, g: 0.59505767, b: 0.1337367, a: 1}
  m_BuildTextureStacks: []
--- !u!114 &8356017012804493744
MonoBehaviour:
  m_ObjectHideFlags: 11
  m_CorrespondingSourceObject: {fileID: 0}
  m_PrefabInstance: {fileID: 0}
  m_PrefabAsset: {fileID: 0}
  m_GameObject: {fileID: 0}
  m_Enabled: 1
  m_EditorHideFlags: 0
  m_Script: {fileID: 11500000, guid: 639247ca83abc874e893eb93af2b5e44, type: 3}
  m_Name: 
  m_EditorClassIdentifier: 
  version: 0
